{
  "component": "...",
  "testType": "FECHIP_TEST",
  "institution": "...",
  "runNumber": "...",
  "date": "2023-04-04T18:50:48.343Z",
  "passed": true,
  "problems": false,
  "properties": {
    "DAQ_VERSION": "FJBFPJKKXZAZGPTYHTSJDSKISYVLSN",
    "DATABASE_LINK": "DUDJARSMRKBUOFIXELXSJYCACPSOTQ"
  },
  "results": {
    "IREF_TRIM_RESULT": "FNBAVJPIBLWNYIBQNITCPAYYHVOVUQ",
    "RING_OSC_0_VALUE": null,
    "TEMPERATURE_A": 826.01,
    "TEMPERATURE_D": 183.29,
    "TEMPERATURE_C": 462.5,
    "TEMPERATURE_T": 974.9,
    "TEMPERATURE_B": 570.76,
    "PC_NTC": 838.23,
    "IREF_TRIM_VALUE": 977.36,
    "IREF_TRIM": 72,
    "VREF_ADC_TRIM_VALUE": 23.88,
    "VREF_ADC_TRIM_RESULT": "OSREKSKAXAKQNVYSSUHXGASOFHAWFX",
    "VREF_ADC_TRIM": 66,
    "VDDA_TRIM_RESULT": "GSJAIJHXCCGVGLXRLVVPXNSKPFKBTS",
    "VDDA_TRIM_VALUE": 819.03,
    "VDDA_TRIM": 47,
    "VDDA_16": 615.25,
    "VDDD_TRIM_RESULT": "PPRXWNOAIZGKSWIECTUJQZUIVPEBGQ",
    "VDDD_TRIM_VALUE": 977.65,
    "VDDD_TRIM": 41,
    "VDDD_16": 544.19,
    "I_VINA_CONF_RESULT": "XCVFCPYJKUYSNMMQHCIIPZILMATIZQ",
    "I_VINA_CONF_VALUE": 44.06,
    "VINA_SHUNT_RESULT": "NDWFBRWAMREBUXJSTAIAMVWDOOPCBS",
    "VINA_SHUNT_KFACTOR": 789.99,
    "VINA_SHUNT_DELTAKFACTOR": 448.78,
    "I_VIND_CONF_RESULT": "DDFSGUYYGZDMIIJBIFUOPGYQYSXSAQ",
    "I_VIND_CONF_VALUE": 345.33,
    "VIND_SHUNT_RESULT": "MEGEKJFHXFWKBICTFGRKWZBJZAFPYI",
    "VIND_SHUNT_KFACTOR": 374.6,
    "VIND_SHUNT_DELTAKFACTOR": 870.63,
    "I_TOT_CONF_RESULT": "QONPRDVXYDGOJAWBLWANLYROQLQCQB",
    "I_TOT_CONF_VALUE": 579.51,
    "ANALOGSCAN_RESULT": "MXTMGTYZZGZWEVLHITHUFXIBOQRJDN",
    "ANALOGSCAN_VALUE": 691.17,
    "DIGITALSCAN_RESULT": "GIVWFUTQNTGUHVTRAFPRSCLCQVYSTU",
    "DIGITALSCAN_VALUE": 993.71,
    "LINK_RESULT": "XLBCFFSPZZDGDGNXTZMVFMZQYGVGKY",
    "LINK_VALUE": 943.23,
    "THRESHOLDSCAN_RESULT": "KZILXTEZNHDVNNEFUDUYBKQBRFWBQJ",
    "THRESHOLDSCAN_VALUE": 231.52,
    "NOCCSCAN_RESULT": "JJSBOMIZUXYDDLVZAJTNSRFHGSEGNW",
    "NOCCSCAN_VALUE": 187.41,
    "IV_CURVES": null,
    "InjectionCapacitance": 208.78,
    "ADC_SLOPE": 715.78,
    "ADC_OFFSET": 739.38,
    "VCAL_HIGH_SMALL_RANGE_SLOPE": 424.61,
    "VCAL_HIGH_SMALL_RANGE_OFFSET": 721.89,
    "VCAL_HIGH_LARGE_RANGE_SLOPE": 460.36,
    "VCAL_HIGH_LARGE_RANGE_OFFSET": 300.26,
    "VCAL_MED_LARGE_RANGE_SLOPE": 598.11,
    "VCAL_MED_LARGE_RANGE_OFFSET": 556.18,
    "VCAL_MED_SMALL_RANGE_OFFSET": 272.62,
    "VCAL_MED_SMALL_RANGE_SLOPE": 308.36,
    "PIXEL_REGISTER_TEST": 551.57,
    "PIXEL_REGISTER_TEST_RESULT": "NAINKYHBVMNHJMPUCVCAIHIHFJCVYF",
    "REGISTER_TEST_RESULT": "RBUMZXFNRNCCJQBVQGWMGZAVEVADDL",
    "CHIP_ID_TEST_RESULT": "OEATJTYLTZJFTNKCTRUDPKEGRRCEMA",
    "DATA_MERGING_RESULT": "XHKOQHUZIRMYPHMXGETHGLBYMHZPXL",
    "FAILED_TESTS": 86,
    "OVERALL_RESULT": "JULVQSQSVXXJPVVVCMFCRIHHTUMQVZ",
    "RESISTOR": 14,
    "ANALOG_DATA": null,
    "META_DATA": null,
    "CURR_MULT_FAC_A": 839.82,
    "CURR_MULT_FAC_D": 60.79,
    "ANALOG_POWER_CONSUMPTION": 650.36,
    "ANALOG_POWER_CONSUMPTION_RESULT": "JWUMGNWLOJSJMNGRZUKEWPBYJWQYPD",
    "DIGITAL_POWER_CONSUMPTION": 565.43,
    "DIGITAL_POWER_CONSUMPTION_RESULT": "BMRUQFLPWHZIWINOCOPXBFXYUIDPBV",
    "ANALOG_OVER_VOLTAGE_PROTECTION": 122.95,
    "ANALOG_OVER_VOLTAGE_PROTECTION_RESULT": "BZJGEPWOQVVEZUEUFWBGXCETLQIGYO",
    "DIGITAL_OVER_VOLTAGE_PROTECTION": 271.66,
    "DIGITAL_OVER_VOLTAGE_PROTECTION_RESULT": "DJUXOXNIMKFPBWTIPJZSVQZHXBUFKF",
    "EFUSES_WRITE_RESULT": "KKGAWHENTTYPXDZGAGWSAOHFYQCQDI"
  }
}